ProyectoFinal/Entrega2/data-csv/scope-signal.csv

Memory Length,500,
Trigger Level,2.080E+00,
Source,CH1,
Vertical Units,V,
Vertical Scale,5.000E-01,
Vertical Position,-1.820E+00,
Horizontal Units,s,
Horizontal Scale,1.000E-02,
Horizontal Position,1.920E-02,
Horizontal Mode,Main,
Sampling Period,4.000E-04,
Firmwave,V1.04,
Time,23-Oct-25 14:24,
Waveform Data,
103,
101,
103,
106,
119,
110,
114,
114,
113,
115,
107,
104,
101,
96,
107,
104,
104,
103,
103,
103,
101,
104,
103,
104,
107,
107,
108,
107,
111,
111,
113,
112,
111,
111,
109,
111,
108,
107,
108,
101,
105,
104,
104,
103,
103,
104,
103,
103,
105,
107,
108,
111,
115,
113,
112,
111,
110,
107,
109,
107,
108,
107,
104,
107,
103,
104,
106,
105,
104,
104,
104,
105,
110,
109,
112,
111,
108,
109,
109,
108,
109,
109,
108,
107,
111,
105,
104,
107,
107,
107,
116,
135,
133,
132,
135,
135,
135,
135,
134,
137,
136,
135,
133,
137,
135,
138,
136,
136,
136,
135,
139,
135,
135,
135,
135,
131,
135,
133,
135,
135,
134,
137,
137,
137,
135,
137,
137,
135,
136,
138,
138,
137,
136,
136,
136,
138,
136,
135,
135,
135,
135,
135,
133,
135,
135,
136,
138,
136,
137,
136,
135,
139,
137,
138,
136,
135,
136,
136,
136,
135,
136,
136,
135,
136,
135,
138,
136,
138,
137,
135,
137,
137,
137,
138,
137,
139,
138,
137,
137,
137,
136,
135,
138,
137,
139,
136,
136,
135,
136,
135,
135,
135,
136,
136,
137,
138,
137,
136,
139,
136,
137,
136,
137,
138,
138,
139,
135,
139,
136,
136,
136,
137,
138,
137,
136,
137,
137,
137,
136,
136,
135,
136,
136,
136,
139,
138,
137,
138,
137,
139,
137,
136,
139,
136,
136,
137,
135,
136,
139,
137,
139,
136,
136,
139,
139,
137,
136,
136,
139,
137,
138,
136,
135,
136,
137,
137,
135,
136,
136,
136,
138,
135,
135,
136,
138,
137,
138,
137,
138,
137,
138,
136,
135,
137,
139,
135,
136,
136,
139,
135,
137,
139,
135,
136,
138,
137,
137,
137,
137,
137,
135,
137,
135,
139,
137,
137,
135,
139,
138,
138,
136,
137,
139,
139,
137,
136,
134,
135,
137,
136,
137,
135,
137,
138,
137,
137,
137,
137,
137,
135,
139,
136,
137,
137,
137,
138,
136,
135,
137,
135,
135,
136,
136,
136,
136,
137,
136,
139,
136,
137,
147,
167,
164,
162,
164,
164,
167,
163,
164,
167,
165,
164,
163,
164,
163,
165,
163,
164,
167,
165,
165,
163,
166,
164,
165,
164,
164,
165,
163,
166,
165,
163,
165,
164,
163,
165,
164,
164,
165,
165,
164,
165,
161,
164,
163,
165,
165,
165,
165,
163,
165,
163,
164,
164,
164,
166,
165,
163,
165,
163,
164,
163,
167,
165,
164,
165,
164,
164,
165,
164,
164,
165,
165,
165,
167,
165,
165,
163,
164,
165,
165,
165,
164,
165,
164,
164,
163,
165,
165,
164,
163,
164,
165,
165,
164,
165,
163,
166,
165,
163,
167,
164,
164,
165,
165,
164,
163,
163,
167,
165,
165,
167,
164,
165,
165,
167,
167,
164,
164,
165,
165,
165,
166,
164,
165,
164,
165,
165,
167,
165,
164,
165,
165,
167,
164,
166,
165,
163,
166,
164,
165,
164,
165,
163,
166,
164,
164,
167,
165,
164,
166,
163,
165,
164,
165,
167,
165,
165,
163,
165,
